Instance ID          Instance Type Status     Private IP      Public IP       Total EBS Size (GB)  EBS Count  EBS Volume IDs                          
-------------------------------------------------------------------------------------------------------------------------------------------------
i-0e8d3b10bb77ac214  t2.micro     running    172.31.26.202   3.66.169.193                       9 GB 2          vol-0e79695af30205cbf, vol-00bd7563aae0102aa

Total EBS Size of all servers: 9 GB


This is the file that was generated in my s3.